exercise_name,group_number,exercise_category,training_category,include

EXERCISE 1a,1,Exercise category 1,Training category 1,x
EXERCISE 1b,1,Exercise category 1,Training category 1,x
EXERCISE 1c,1,Exercise category 1,Training category 1,x
EXERCISE 2a,2,Exercise category 1,Training category 1,x
EXERCISE 2b,2,Exercise category 1,Training category 1,x
EXERCISE 2c,2,Exercise category 1,Training category 1,x
EXERCISE 3a,1,Exercise category 2,Training category 1,
EXERCISE 3b,1,Exercise category 2,Training category 1,
EXERCISE 3c,1,Exercise category 2,Training category 1,
EXERCISE 4a,2,Exercise category 2,Training category 1,X
EXERCISE 4b,2,Exercise category 2,Training category 1,X
EXERCISE 4c,2,Exercise category 2,Training category 1,X

EXERCISE 10a,1,Exercise category 5,Training category 2,x
EXERCISE 10b,1,Exercise category 5,Training category 2,x
EXERCISE 11a,2,Exercise category 5,Training category 2,x
EXERCISE 11b,2,Exercise category 5,Training category 2,x
EXERCISE 12a,3,Exercise category 5,Training category 2,x
EXERCISE 12b,3,Exercise category 5,Training category 2,x
EXERCISE 13a,1,Exercise category 6,Training category 2,
EXERCISE 13b,1,Exercise category 6,Training category 2,
EXERCISE 14a,2,Exercise category 6,Training category 2,
EXERCISE 14b,2,Exercise category 6,Training category 2,
EXERCISE 15a,1,Exercise category 7,Training category 2,
EXERCISE 15b,1,Exercise category 7,Training category 2,x
EXERCISE 16a,3,Exercise category 7,Training category 2,x
EXERCISE 16b,3,Exercise category 7,Training category 2,write anything to select.. as long as it's not blank
EXERCISE 17a,1,Exercise category 8,Training category 2,x
EXERCISE 17b,1,Exercise category 8,Training category 2,
EXERCISE 18a,2,Exercise category 8,Training category 2,x
EXERCISE 18b,2,Exercise category 8,Training category 2,
